ID,ID_2,ID_3,BPT,DUP,EXV,EXD,EXT,EXA,RQ,RD,OW,OTC,EXC,EXQ,RQ2,RQ3,RQ4,RQ5,RQ6,RQ7,RQ8,RQ9,RQ10,RQ11,,,,,,
1,,,,,,,,,,,1,,1,,,,,,,,,,,,,,,,,
2,1,2,,,,,,,,1,,,,,,2,,2,2,2,2,2,,,,,,,,
3,2,3,,,,,,,1,1,,,,,,,,,,1,2,2,2,1,,EXD,,,,
4,3,4,,,,,,,,1,,,,,,,,,,2,2,2,,,,EXT,,,,
5,,,,,,,,,1,,1,,1,,,,,,,,,,,,,EXA,,,,
6,4,5,,,,,,,,1,,,,,2,2,1,1,,2,2,2,,,,EXC,,,,
7,,,,,,,,,,,,,1,,,,,,,,,,,,,EXQ,,,,
8,5,6,,,,,,,,1,,,,,1,,,1,,2,1,2,1,1,,,,,,
9,,,,,,,,,,,,,1,,,,,,,,,,,,,Papers per phase,,,,
10,,,,,,,,,,,1,,1,,,,,,,,,,,,,1,145,,,
11,,,1,,,1,,,,,,,,,,,,,,,,,,,,2,115,,,
12,,,,,,,,,,,,,1,,,,,,,,,,,,,3,108,,,
13,,,1,,,1,,,,,,,,,,,,,,,,,,,,4,94,,,
14,,,,,,,,,,,,,1,,,,,,,,,,,,,5,50,,,
15,,,,,,,,,,,,,1,,,,,,,,,,,,,6,48,,,
16,,,,,,,,,,1,,,,1,,,,,,,,,,,,,,,,
17,6,9,,,,,,,,1,,,,,,2,,,2,2,2,2,1,1,,I/E criteria totals,,,,
18,7,10,,,,,,,1,,,,,,,2,,2,,2,2,2,2,2,,BPT,19,,,
19,8,11,,,,,,,,1,,,,,,1,,,1,2,2,2,,,,DUP,6,,,
20,9,12,,,,,,,,1,,,,,2,2,,2,,2,2,2,2,2,,EXV,5,,,
21,,,,,,,,,,,,,1,,,,,,,,,,,,,EXD,30,,,
22,10,13,,,,,,,1,,,,,,,2,,1,,2,2,2,,,,EXT,7,,,
23,11,14,,,,,,,,1,,,,,1,1,,1,1,2,2,2,,,,EXA,14,,,
24,12,15,,,,,,,,1,,,,,2,2,1,2,,2,2,2,,,,RQ,17,,,
25,13,16,,,,,,,,1,,,,,1,1,,1,,2,2,2,2,2,,RD,49,,,
26,,,,,,,,,,,1,,1,,,,,,,,,,,,,OW,8,,,
27,,,1,,,1,,,,,,,,,,,,,,,,,,,,OTC,4,,,
28,14,19,,,,,,,1,1,,,,,1,2,,1,,2,2,2,,,,EXC,44,,,
29,15,21,,,,,,,,1,,,,,,2,,,,2,2,2,,1,,EXQ,2,,,
30,16,22,,,,,,,,1,,,,,1,2,,2,,2,2,2,,,,,,,,
31,17,24,,,,,,,1,1,,,,,,2,,1,1,2,2,2,2,2,,Responses Frequency,,,,
32,,,,,,,,,,,,,1,,,,,,,,,,,,,,0,1,2,
33,18,25,,,,,,,,1,,,,,1,1,,1,,2,2,2,,,,RQ2,26,16,6,
34,,,,,,,,,,,,,1,,,,,,,,,,,,,RQ3,9,9,30,
35,19,26,,,,,,,1,1,,,,,1,2,,,2,1,2,2,,,,RQ4,42,5,1,
36,20,27,,,,,,,,1,,,,,2,1,1,2,1,1,2,2,,,,RQ5,27,10,11,
37,,,,,,,,,,,,,1,,,,,,,,,,,,,RQ6,33,11,4,
38,21,28,,,,,,,1,1,,,,,,,,,,,2,2,,2,,RQ7,5,6,37,
39,,,1,,,1,,,,,,,,,,,,,,,,,,,,RQ8,3,2,43,
40,,,,,,,,,,,,,1,,,,,,,,,,,,,RQ9,1,0,47,
41,22,29,,,,,,,,1,,,,,,2,,2,1,,2,2,2,,,RQ10,35,3,10,
42,,,,,,,,,,,,,1,,,,,,,,,,,,,RQ11,31,6,11,
43,,,1,,,1,,,,,,,,,,,,,,,,,,,,,,,,
44,,,,,,,,,,,1,,1,,,,,,,,,,,,,,,,,
45,,,1,,,1,,,,,,,,,,,,,,,,,,,,,,,,
46,,,1,,,1,,,,,,,,,,,,,,,,,,,,,fracas,medias,fortes,
47,,,,,,,,,,,,,1,,,,,,,,,,,,,,4,2,3,
48,,,,,,,,,,,,,1,,,,,,,,,,,,,,10,5,7,bruno
49,23,32,,,,,,,,1,,,,,1,2,,,,2,2,2,,,,,11,6,8,alexis
50,24,33,,,,,,,,1,,,,,,2,,,,,2,,,,,,,,9,ivan
51,,,,,,,,,,,,,1,,,,,,,,,,,,,,,,,
52,25,34,,,,,,,,1,,,,,,2,,2,2,2,2,2,,1,,,,,,
53,,,1,,,1,,,,,,,,,,,,,,,,,,,,,,,,
54,26,35,,,,,,,,1,,,,,,2,2,2,1,2,2,2,2,2,,,,,,
55,,,,,,,,,,,,,1,,,,,,,,,,,,,,,,,
56,,,,,,,,,,,,,1,,,,,,,,,,,,,,,,,
57,27,36,,,,,,,1,1,,,,,,2,,,,2,2,2,,,,,,,,
58,,,,,,,,,,,1,,1,,,,,,,,,,,,,,,,,
59,,,,,,,,,,,,,1,,,,,,,,,,,,,,,,,
60,,,,,,,,,,,,,1,,,,,,,,,,,,,,,,,
61,,,1,,,1,,,,,,,,,,,,,,,,,,,,,,,,
62,,,,,,,,,,,,,1,,,,,,,,,,,,,,,,,
63,28,37,,,,,,,,1,,,,,,1,,,,,2,2,,,,,,,,
64,29,38,,,,,,,,1,,,,,,2,,1,,2,2,2,2,,,,,,,
65,30,39,,,,,,,,1,,,,,1,2,,,,2,2,2,2,2,,,,,,
66,31,41,,,,,,,,1,,,,,1,2,,1,,2,,2,,,,,,,,
67,,,1,,,1,,,,,,,,,,,,,,,,,,,,,,,,
68,,,,,1,1,,,,1,,,,,,,,,,,,,,,,,,,,
69,32,42,,,,,,,1,1,,,,,1,2,,,,2,2,2,,,,,,,,
70,33,43,,,,,,,1,1,,,,,1,2,,,,1,,2,,,,,,,,
71,,,,,,,,,,,,,1,,,,,,,,,,,,,,,,,
72,34,,,,1,1,,,,1,,,,,,,,,,,,,,,,,,,,
73,35,45,,,,,,,,1,,,,,2,,,,,2,2,2,,2,,,,,,
74,36,47,,,,,,,,1,,,,,1,2,,,,2,2,2,,,,,,,,
75,37,48,,,,,,,1,,,,,,,2,,,,2,2,2,1,2,,,,,,
R1,38,31,,,,,,,,1,,,,,,1,,,1,,2,2,,1,,,,,,
R2,,,,,,,,,,,,,1,,,,,,,,,,,,,,,,,
R3,,,,,,,,,,,,,1,,,,,,,,,,,,,,,,,
R4,,,,,,,,,,1,,,,1,,,,,,,,,,,,,,,,
R5,39,30,,,,,,,1,,,,,,2,2,,2,,2,2,2,,2,,,,,,
R6,,,,,,,,,,,,,1,,,,,,,,,,,,,,,,,
R7,40,44,,,,,,,1,1,,,,,1,1,,,1,1,2,2,,,,,,,,
R8,41,40,,,,,,,,1,,,,,,,,,1,2,2,2,,,,,,,,
R9,,,,,,,,,,,,,1,,,,,,,,,,,,,,,,,
R10,,,,,,,,,,,,,1,,,,,,,,,,,,,,,,,
R11,,,,1,,1,,,,,,,,,,,,,,,,,,,,,,,,
R12,42,18,,,,,,,,1,,,,,1,,,,,2,2,2,,,,,,,,
R13,,,,,,,,,,,,,1,,,,,,,,,,,,,,,,,
R14,43,23,,,,,,,1,1,,,,,,,,,,2,2,2,,,,,,,,
R15,44,7,,,,,,,1,1,,,,,1,2,,,,2,2,2,,,,,,,,
Q1,,,,,,,,,,,,1,1,,,,,,,,,,,,,,,,,
Q2,45,1,,,,,,,,1,,,,,,2,1,,1,1,2,2,,,,,,,,
Q3,46,8,,,,,,,,1,,,,,,,,,,2,,2,,,,,,,,
Q4,47,17,,,,,,,,1,,,,,,2,,2,,2,2,2,2,,,,,,,
Q5,48,,,,,,,,,,,,1,,,,,,,,,,,,,,,,,
Q6,49,20,,,,,,,,1,,,,,,1,,,,2,1,2,,2,,,,,,
Q7,,,,,,,,,,,,,1,,,,,,,,,,,,,,,,,
Q8,,,,,,,,,,,,1,1,,,,,,,,,,,,,,,,,
Q9,50,,,,,,,,1,1,1,,1,,,,,,,,,,,,,,,,,
Q10,,,,,,,,,,,1,,1,,,,,,,,,,,,,,,,,
Q11,,,,,,,,,,,,1,1,,,,,,,,,,,,,,,,,
Q12,,,,,,,,,,,,,1,,,,,,,,,,,,,,,,,
Q13,,,,,,,,,,,,,1,,,,,,,,,,,,,,,,,
Q14,,,,,,,,,,,,,1,,,,,,,,,,,,,,,,,
Q15,,,,,,,,,,,,,1,,,,,,,,,,,,,,,,,
Q16,,,1,,,1,,,,,,,,,,,,,,,,,,,,,,,,
Q17,51,46,,,,,,,,1,,,,,,2,1,,1,2,2,2,,,,,,,,
Q18,,,,,,,,,,,,1,1,,,,,,,,,,,,,,,,,
X1,,,,,,,,1,,,,,,,,,,,,,,,,,,,,,,
X2,,,,,,,1,,,,,,,,,,,,,,,,,,,,,,,
X3,,,1,,,1,,,,,,,,,,,,,,,,,,,,,,,,
X4,,,1,,,1,,,,,,,,,,,,,,,,,,,,,,,,
X5,,,,1,,1,,,,,,,,,,,,,,,,,,,,,,,,
X6,,,,1,,1,,,,,,,,,,,,,,,,,,,,,,,,
X7,,,,,,,,1,,,,,,,,,,,,,,,,,,,,,,
X8,,,,,,,,1,,,,,,,,,,,,,,,,,,,,,,
X9,,,,1,,1,,,,,,,,,,,,,,,,,,,,,,,,
X10,,,1,,,1,,,,,,,,,,,,,,,,,,,,,,,,
X11,,,1,,,1,,,,,,,,,,,,,,,,,,,,,,,,
X12,,,,,1,1,,,,,,,,,,,,,,,,,,,,,,,,
X13,,,,,,,,1,,,,,,,,,,,,,,,,,,,,,,
X14,,,,,,,,1,,,,,,,,,,,,,,,,,,,,,,
X15,,,,,1,1,,,,,,,,,,,,,,,,,,,,,,,,
X16,,,1,,,1,,,,,,,,,,,,,,,,,,,,,,,,
X17,,,1,,,1,,,,,,,,,,,,,,,,,,,,,,,,
X18,,,,,,,1,,,,,,,,,,,,,,,,,,,,,,,
X19,,,,,,,1,,,,,,,,,,,,,,,,,,,,,,,
X20,,,,,,,,1,,,,,,,,,,,,,,,,,,,,,,
X21,,,1,,,1,,,,,,,,,,,,,,,,,,,,,,,,
X22,,,,,,,,1,,,,,,,,,,,,,,,,,,,,,,
X23,,,,,,,,1,,,,,,,,,,,,,,,,,,,,,,
X24,,,,,,,1,,,,,,,,,,,,,,,,,,,,,,,
X25,,,,,,,1,,,,,,,,,,,,,,,,,,,,,,,
X26,,,,,,,1,,,,,,,,,,,,,,,,,,,,,,,
X27,,,,1,,1,,,,,,,,,,,,,,,,,,,,,,,,
X28,,,1,,,1,,,,,,,,,,,,,,,,,,,,,,,,
X29,,,,,,,,1,,,,,,,,,,,,,,,,,,,,,,
X30,,,,,,,,1,,,,,,,,,,,,,,,,,,,,,,
X31,,,,1,,1,,,,,,,,,,,,,,,,,,,,,,,,
X32,,,,,,,,1,,,,,,,,,,,,,,,,,,,,,,
X33,,,,,1,1,,,,,,,,,,,,,,,,,,,,,,,,
X34,,,,,,,,1,,,,,,,,,,,,,,,,,,,,,,
X35,,,,,,,1,,,,,,,,,,,,,,,,,,,,,,,
X36,,,,,,,,1,,,,,,,,,,,,,,,,,,,,,,
X37,,,,,,,,1,,,,,,,,,,,,,,,,,,,,,,