strict digraph {
  rankdir = BT;
  ConstraintRequirement -> QoS;
  Scalability -> QoS;
  QoS -> SLA;
  SecurityRequirement -> QoS;
  FailureRecovery -> QoS;
  Reliability -> QoS;
  SpecificQualityRequirement -> QoS;
  NonFunctionalRequirement -> QoS;
  DataConsistency -> QoS;
  Reputation -> QoS;
  Transaction -> QoS;
  PerformanceRequirement -> QoS;
}
